<?xml version="1.0" encoding="UTF-8" standalone="no"?>
<!-- Created with Inkscape (http://www.inkscape.org/) -->

<svg
   width="3.8767128mm"
   height="3.8767128mm"
   viewBox="0 0 3.8767127 3.8767127"
   version="1.1"
   id="svg5"
   sodipodi:docname="skill.svg"
   inkscape:version="1.1.2 (0a00cf5339, 2022-02-04)"
   xmlns:inkscape="http://www.inkscape.org/namespaces/inkscape"
   xmlns:sodipodi="http://sodipodi.sourceforge.net/DTD/sodipodi-0.dtd"
   xmlns="http://www.w3.org/2000/svg"
   xmlns:svg="http://www.w3.org/2000/svg">
  <sodipodi:namedview
     id="namedview7"
     pagecolor="#ffffff"
     bordercolor="#666666"
     borderopacity="1.0"
     inkscape:pageshadow="2"
     inkscape:pageopacity="0.0"
     inkscape:pagecheckerboard="0"
     inkscape:document-units="mm"
     showgrid="false"
     inkscape:zoom="9.1793488"
     inkscape:cx="47.988154"
     inkscape:cy="54.579035"
     inkscape:window-width="2560"
     inkscape:window-height="1411"
     inkscape:window-x="1080"
     inkscape:window-y="0"
     inkscape:window-maximized="1"
     inkscape:current-layer="layer1" />
  <defs
     id="defs2" />
  <g
     inkscape:label="Layer 1"
     inkscape:groupmode="layer"
     id="layer1"
     transform="translate(-45.943515,-55.712772)">
    <rect
       style="fill:#ffffff;stroke:#ff0000;stroke-width:0.341;stroke-miterlimit:4;stroke-dasharray:none;fill-opacity:1"
       id="rect169"
       width="2.5"
       height="2.5"
       x="-8.174942"
       y="73.371521"
       transform="rotate(-45.013079)" />
  </g>
</svg>
